%YAML 1.1
%TAG !u! tag:unity3d.com,2011:
--- !u!114 &11400000
MonoBehaviour:
  m_ObjectHideFlags: 0
  m_CorrespondingSourceObject: {fileID: 0}
  m_PrefabInstance: {fileID: 0}
  m_PrefabAsset: {fileID: 0}
  m_GameObject: {fileID: 0}
  m_Enabled: 1
  m_EditorHideFlags: 0
  m_Script: {fileID: 42938266, guid: e743331561ef77147ae48cda9bcb8209, type: 3}
  m_Name: PlayMakerGlobals
  m_EditorClassIdentifier: 
  variables:
    floatVariables:
    - useVariable: 1
      name: InputMagnitude
      tooltip: 
      showInInspector: 0
      networkSync: 0
      value: 0
    - useVariable: 1
      name: MouseX
      tooltip: 
      showInInspector: 0
      networkSync: 0
      value: 0
    - useVariable: 1
      name: MouseY
      tooltip: 
      showInInspector: 0
      networkSync: 0
      value: 0
    - useVariable: 1
      name: mouseDistance
      tooltip: 
      showInInspector: 0
      networkSync: 0
      value: 0
    intVariables:
    - useVariable: 1
      name: ButtonPushedCounter
      tooltip: 
      showInInspector: 0
      networkSync: 0
      value: 0
    - useVariable: 1
      name: MasterOpen
      tooltip: 
      showInInspector: 0
      networkSync: 0
      value: 0
    boolVariables:
    - useVariable: 1
      name: ButtonBL1
      tooltip: 
      showInInspector: 0
      networkSync: 0
      value: 0
    - useVariable: 1
      name: ButtonBL2
      tooltip: 
      showInInspector: 0
      networkSync: 0
      value: 0
    - useVariable: 1
      name: ButtonBL3
      tooltip: 
      showInInspector: 0
      networkSync: 0
      value: 0
    - useVariable: 1
      name: ButtonBL4
      tooltip: 
      showInInspector: 0
      networkSync: 0
      value: 0
    - useVariable: 1
      name: ButtonBL5
      tooltip: 
      showInInspector: 0
      networkSync: 0
      value: 0
    - useVariable: 1
      name: ButtonBL6
      tooltip: 
      showInInspector: 0
      networkSync: 0
      value: 0
    - useVariable: 1
      name: ButtonBR1
      tooltip: 
      showInInspector: 0
      networkSync: 0
      value: 0
    - useVariable: 1
      name: ButtonBR1
      tooltip: 
      showInInspector: 0
      networkSync: 0
      value: 0
    - useVariable: 1
      name: ButtonBR2
      tooltip: 
      showInInspector: 0
      networkSync: 0
      value: 0
    - useVariable: 1
      name: ButtonBR3
      tooltip: 
      showInInspector: 0
      networkSync: 0
      value: 0
    - useVariable: 1
      name: ButtonBR4
      tooltip: 
      showInInspector: 0
      networkSync: 0
      value: 0
    - useVariable: 1
      name: ButtonBR5
      tooltip: 
      showInInspector: 0
      networkSync: 0
      value: 0
    - useVariable: 1
      name: ButtonBR6
      tooltip: 
      showInInspector: 0
      networkSync: 0
      value: 0
    - useVariable: 1
      name: ButtonTL1
      tooltip: 
      showInInspector: 0
      networkSync: 0
      value: 0
    - useVariable: 1
      name: ButtonTL1
      tooltip: 
      showInInspector: 0
      networkSync: 0
      value: 0
    - useVariable: 1
      name: ButtonTL2
      tooltip: 
      showInInspector: 0
      networkSync: 0
      value: 0
    - useVariable: 1
      name: ButtonTL5
      tooltip: 
      showInInspector: 0
      networkSync: 0
      value: 0
    - useVariable: 1
      name: ButtonTL6
      tooltip: 
      showInInspector: 0
      networkSync: 0
      value: 0
    - useVariable: 1
      name: ButtonTR1
      tooltip: 
      showInInspector: 0
      networkSync: 0
      value: 0
    - useVariable: 1
      name: ButtonTR2
      tooltip: 
      showInInspector: 0
      networkSync: 0
      value: 0
    - useVariable: 1
      name: ButtonTR3
      tooltip: 
      showInInspector: 0
      networkSync: 0
      value: 0
    - useVariable: 1
      name: ButtonTR4
      tooltip: 
      showInInspector: 0
      networkSync: 0
      value: 0
    - useVariable: 1
      name: ButtonTR5
      tooltip: 
      showInInspector: 0
      networkSync: 0
      value: 0
    - useVariable: 1
      name: ButtonTR6
      tooltip: 
      showInInspector: 0
      networkSync: 0
      value: 0
    - useVariable: 1
      name: ButtonTl3
      tooltip: 
      showInInspector: 0
      networkSync: 0
      value: 0
    - useVariable: 1
      name: ButtonTl4
      tooltip: 
      showInInspector: 0
      networkSync: 0
      value: 0
    stringVariables: []
    vector2Variables: []
    vector3Variables:
    - useVariable: 1
      name: Gravity
      tooltip: 
      showInInspector: 0
      networkSync: 0
      value: {x: 0, y: 0, z: 0}
    - useVariable: 1
      name: InputVector
      tooltip: 
      showInInspector: 0
      networkSync: 0
      value: {x: 0, y: 0, z: 0}
    - useVariable: 1
      name: MouseLocation
      tooltip: 
      showInInspector: 0
      networkSync: 0
      value: {x: 0, y: 0, z: 0}
    colorVariables: []
    rectVariables: []
    quaternionVariables: []
    gameObjectVariables:
    - useVariable: 1
      name: ButtonHit
      tooltip: 
      showInInspector: 0
      networkSync: 0
      value: {fileID: 0}
    objectVariables: []
    materialVariables: []
    textureVariables: []
    arrayVariables: []
    enumVariables: []
    categories:
    - 
    variableCategoryIDs: 000000000000000000000000000000000000000000000000000000000000000000000000000000000000000000000000000000000000000000000000000000000000000000000000000000000000000000000000000000000000000000000000000000000000000000000000000000000000000000000000000000000000000000000000000000000000000000000000
  events:
  - Reset
  - ButtonFllipDown
  - MasterCounter1
  - ResetBool
  - ResetBoolEvent
